%YAML 1.1
%TAG !u! tag:unity3d.com,2011:
--- !u!114 &11400000
MonoBehaviour:
  m_ObjectHideFlags: 32
  m_CorrespondingSourceObject: {fileID: 0}
  m_PrefabInstance: {fileID: 0}
  m_PrefabAsset: {fileID: 0}
  m_GameObject: {fileID: 0}
  m_Enabled: 1
  m_EditorHideFlags: 0
  m_Script: {fileID: 11500000, guid: a5e40a8d5146aaf49ac9dfb4cd52d89d, type: 3}
  m_Name: example_single_pose_hmd
  m_EditorClassIdentifier: 
  _developerNote: 
  _dontUnloadUnusedAsset: 1
  _resetValueOnEnable: 1
  _defaultValue:
    _position: {x: 0, y: 0, z: 0}
    _rotation: {x: 0, y: 0, z: 0, w: 1}
    _editorEulerAngles: {x: 0, y: 0, z: 0}
  _value:
    _position: {x: 0, y: 0, z: 0}
    _rotation: {x: 0, y: 0, z: 0, w: 1}
    _editorEulerAngles: {x: 0, y: 0, z: 0}
