%YAML 1.1
%TAG !u! tag:unity3d.com,2011:
--- !u!114 &11400000
MonoBehaviour:
  m_ObjectHideFlags: 32
  m_CorrespondingSourceObject: {fileID: 0}
  m_PrefabInstance: {fileID: 0}
  m_PrefabAsset: {fileID: 0}
  m_GameObject: {fileID: 0}
  m_Enabled: 1
  m_EditorHideFlags: 0
  m_Script: {fileID: 11500000, guid: 4fbe932ed3abc404ea3c934718dba05c, type: 3}
  m_Name: single_float_example_combine_03
  m_EditorClassIdentifier: 
  _developerNote: 
  _dontUnloadUnusedAsset: 1
  _resetValueOnEnable: 0
  _defaultValue: 0
  _value: 10
