%YAML 1.1
%TAG !u! tag:unity3d.com,2011:
--- !u!114 &11400000
MonoBehaviour:
  m_ObjectHideFlags: 32
  m_CorrespondingSourceObject: {fileID: 0}
  m_PrefabInstance: {fileID: 0}
  m_PrefabAsset: {fileID: 0}
  m_GameObject: {fileID: 0}
  m_Enabled: 1
  m_EditorHideFlags: 0
  m_Script: {fileID: 11500000, guid: dc8ec3cd85e0cad43b6489cf85a79fea, type: 3}
  m_Name: example_basic_gui_single_string_input
  m_EditorClassIdentifier: 
  _developerNote: 
  _dontUnloadUnusedAsset: 1
  _resetValueOnEnable: 0
  _defaultValue: 
  _value: How you going
