%YAML 1.1
%TAG !u! tag:unity3d.com,2011:
--- !u!114 &11400000
MonoBehaviour:
  m_ObjectHideFlags: 0
  m_CorrespondingSourceObject: {fileID: 0}
  m_PrefabInstance: {fileID: 0}
  m_PrefabAsset: {fileID: 0}
  m_GameObject: {fileID: 0}
  m_Enabled: 1
  m_EditorHideFlags: 0
  m_Script: {fileID: 11500000, guid: 24a0d4ab85eb9af49968c44d497ab0ca, type: 3}
  m_Name: input_axis_example
  m_EditorClassIdentifier: 
  _sources:
  - id: 0
  _invert: 0
  _positiveOnly: 0
  _magnitudeOnly: 0
  references:
    version: 1
    00000000:
      type: {class: KeyboardFloatInputSource, ns: BasicFramework.Core.ScriptableInputs,
        asm: Assembly-CSharp}
      data:
        _enabled: 1
        _range:
          _min: -1
          _max: 1
          _range: 2
          _value: 0
          _normalizedValue: 0.5
        _positiveKey: 119
        _negativeKey: 115
        _anyModifier: 1
        _modifier: 0
        _snap: 0
        _rangeChangeTime: 0.5
        _easingType: 0
