%YAML 1.1
%TAG !u! tag:unity3d.com,2011:
--- !u!114 &11400000
MonoBehaviour:
  m_ObjectHideFlags: 0
  m_CorrespondingSourceObject: {fileID: 0}
  m_PrefabInstance: {fileID: 0}
  m_PrefabAsset: {fileID: 0}
  m_GameObject: {fileID: 0}
  m_Enabled: 1
  m_EditorHideFlags: 0
  m_Script: {fileID: 11500000, guid: 49a91bae2cfa60642a9be71ec37e23bc, type: 3}
  m_Name: input_action_example
  m_EditorClassIdentifier: 
  _sources: []
  _actionInputMode: 0
  _requiredCount: 1
  _unlimitedCount: 0
  _holdTime: 1
  _resetHoldOnComplete: 0
  _trueUntilReset: 0
  references:
    version: 1
