%YAML 1.1
%TAG !u! tag:unity3d.com,2011:
--- !u!114 &11400000
MonoBehaviour:
  m_ObjectHideFlags: 32
  m_CorrespondingSourceObject: {fileID: 0}
  m_PrefabInstance: {fileID: 0}
  m_PrefabAsset: {fileID: 0}
  m_GameObject: {fileID: 0}
  m_Enabled: 1
  m_EditorHideFlags: 0
  m_Script: {fileID: 11500000, guid: a5e40a8d5146aaf49ac9dfb4cd52d89d, type: 3}
  m_Name: single_pose_timeline_example
  m_EditorClassIdentifier: 
  _developerNote: 
  _dontUnloadUnusedAsset: 1
  _resetValueOnEnable: 1
  _defaultValue:
    _position: {x: 0, y: 0, z: 0}
    _rotation: {x: 0, y: 0, z: 0, w: 1}
    _editorEulerAngles: {x: 0, y: 0, z: 0}
  _value:
    _position: {x: 151, y: 100, z: 54}
    _rotation: {x: 0.3796798, y: 0.41140333, z: 0.5022778, w: 0.6590201}
    _editorEulerAngles: {x: 4.9999995, y: 68, z: 78}
