%YAML 1.1
%TAG !u! tag:unity3d.com,2011:
--- !u!114 &11400000
MonoBehaviour:
  m_ObjectHideFlags: 32
  m_CorrespondingSourceObject: {fileID: 0}
  m_PrefabInstance: {fileID: 0}
  m_PrefabAsset: {fileID: 0}
  m_GameObject: {fileID: 0}
  m_Enabled: 1
  m_EditorHideFlags: 0
  m_Script: {fileID: 11500000, guid: 5d050f817afb4e54699e38303db70ea3, type: 3}
  m_Name: single_normalized_float_example_teleport_screen_fade
  m_EditorClassIdentifier: 
  _developerNote: 
  _dontUnloadUnusedAsset: 1
  _resetValueOnEnable: 1
  _defaultValue:
    _value: 0
  _value:
    _value: 0
