%YAML 1.1
%TAG !u! tag:unity3d.com,2011:
--- !u!114 &11400000
MonoBehaviour:
  m_ObjectHideFlags: 0
  m_CorrespondingSourceObject: {fileID: 0}
  m_PrefabInstance: {fileID: 0}
  m_PrefabAsset: {fileID: 0}
  m_GameObject: {fileID: 0}
  m_Enabled: 1
  m_EditorHideFlags: 0
  m_Script: {fileID: 11500000, guid: a370a0bd82a220641a390f08989079cd, type: 3}
  m_Name: event_basic_scene_switch_to_scene_example
  m_EditorClassIdentifier: 
  _testArg0: {fileID: 0}
  _developerNote: 
